\BOOKMARK [1][-]{section.1}{Introduction}{}% 1
\BOOKMARK [1][-]{section.2}{Related Work}{}% 2
\BOOKMARK [1][-]{section.3}{Core Data Model}{}% 3
\BOOKMARK [2][-]{subsection.3.1}{Committer Node}{section.3}% 4
\BOOKMARK [2][-]{subsection.3.2}{Commit Node}{section.3}% 5
\BOOKMARK [2][-]{subsection.3.3}{Repository Node}{section.3}% 6
\BOOKMARK [2][-]{subsection.3.4}{Project Node}{section.3}% 7
\BOOKMARK [2][-]{subsection.3.5}{File Node}{section.3}% 8
\BOOKMARK [2][-]{subsection.3.6}{FileType Node}{section.3}% 9
\BOOKMARK [2][-]{subsection.3.7}{Limitations of the Core Model}{section.3}% 10
\BOOKMARK [1][-]{section.4}{MSR4J Architecture}{}% 11
\BOOKMARK [2][-]{subsection.4.1}{Infrastructure}{section.4}% 12
\BOOKMARK [2][-]{subsection.4.2}{Superstructure}{section.4}% 13
\BOOKMARK [2][-]{subsection.4.3}{Limitation of the architecture}{section.4}% 14
\BOOKMARK [1][-]{section.5}{Application to the Apache Software Foundation}{}% 15
\BOOKMARK [2][-]{subsection.5.1}{Data Model for Data Collection}{section.5}% 16
\BOOKMARK [2][-]{subsection.5.2}{Data Collection}{section.5}% 17
\BOOKMARK [2][-]{subsection.5.3}{Architecture}{section.5}% 18
\BOOKMARK [2][-]{subsection.5.4}{Data Storage}{section.5}% 19
\BOOKMARK [2][-]{subsection.5.5}{Data Analysis}{section.5}% 20
\BOOKMARK [2][-]{subsection.5.6}{Limitations}{section.5}% 21
\BOOKMARK [1][-]{section.6}{Conclusion and Perspective}{}% 22
\BOOKMARK [1][-]{section*.7}{References}{}% 23
