14:32:16,335 |-INFO in ch.qos.logback.classic.LoggerContext[default] - Could NOT find resource [logback.groovy]
14:32:16,336 |-INFO in ch.qos.logback.classic.LoggerContext[default] - Could NOT find resource [logback-test.xml]
14:32:16,336 |-INFO in ch.qos.logback.classic.LoggerContext[default] - Found resource [logback.xml] at [file:/Users/lom/Documents/Recherche/Projets/ASFDataset/MSR4J/target/classes/logback.xml]
14:32:16,458 |-INFO in ch.qos.logback.classic.joran.action.ConsolePluginAction - Sending LoggingEvents to the plugin using port 4321
14:32:16,458 |-INFO in ch.qos.logback.core.joran.action.AppenderAction - About to instantiate appender of type [ch.qos.logback.core.ConsoleAppender]
14:32:16,460 |-INFO in ch.qos.logback.core.joran.action.AppenderAction - Naming appender as [STDOUT]
14:32:16,464 |-INFO in ch.qos.logback.classic.net.SocketAppender[null] - remote peer localhost:4321: connection established
14:32:16,480 |-INFO in ch.qos.logback.core.joran.action.NestedComplexPropertyIA - Assuming default type [ch.qos.logback.classic.encoder.PatternLayoutEncoder] for [encoder] property
14:32:16,519 |-INFO in ch.qos.logback.classic.joran.action.LoggerAction - Setting level of logger [fr.lip6.msr4j] to TRACE
14:32:16,520 |-INFO in ch.qos.logback.classic.joran.action.RootLoggerAction - Setting level of ROOT logger to DEBUG
14:32:16,520 |-INFO in ch.qos.logback.core.joran.action.AppenderRefAction - Attaching appender named [STDOUT] to Logger[ROOT]
14:32:16,520 |-INFO in ch.qos.logback.classic.joran.action.ConfigurationAction - End of configuration.
14:32:16,522 |-INFO in ch.qos.logback.classic.joran.JoranConfigurator@24c31811 - Registering current configuration as safe fallback point
14:32:16.526 [main] ERROR fr.lip6.msr4j.main.MainAnySCM - Unrecognized option: -repoName
usage: java -jar pathToJarFile
 -dbPath <file>                  Required: use given file containing the
                                 back end DB path
 -help                           print this help message
 -logfile <file>                 use given file for log. It will be
                                 created if it doesn't exist (including
                                 recursively parent folders)
 -repoNames <repository-names>   Required: process the repositories
                                 identified by these names (e.g: a or
                                 a,b,c or 'all')
 -scmCred <file>                 Required: use given file containing the
                                 SCM Credentials
 -scmURL <file>                  Required: use given file containing the
                                 SCM URLs
 -scmWC <file>                   Required: use given file containing the
                                 SCM working copies local paths (or
                                 clones)
 -version                        print the version information and exit
14:32:16.530 [main] ERROR fr.lip6.msr4j.main.MainAnySCM - [org.apache.commons.cli.Parser.processOption(Parser.java:363), org.apache.commons.cli.Parser.parse(Parser.java:199), org.apache.commons.cli.Parser.parse(Parser.java:85), fr.lip6.msr4j.main.MainAnySCM.parseArguments(MainAnySCM.java:149), fr.lip6.msr4j.main.MainAnySCM.main(MainAnySCM.java:76)]
